%YAML 1.1
%TAG !u! tag:unity3d.com,2011:
--- !u!1001 &3670647806063821927
PrefabInstance:
  m_ObjectHideFlags: 0
  serializedVersion: 2
  m_Modification:
    m_TransformParent: {fileID: 0}
    m_Modifications:
    - target: {fileID: 1952414530387329057, guid: a8a737ba44c48444f932554f9f13307a,
        type: 3}
      propertyPath: m_Name
      value: Card Template
      objectReference: {fileID: 0}
    - target: {fileID: 6964907455396844331, guid: a8a737ba44c48444f932554f9f13307a,
        type: 3}
      propertyPath: m_LocalPosition.x
      value: 0
      objectReference: {fileID: 0}
    - target: {fileID: 6964907455396844331, guid: a8a737ba44c48444f932554f9f13307a,
        type: 3}
      propertyPath: m_LocalPosition.y
      value: 0
      objectReference: {fileID: 0}
    - target: {fileID: 6964907455396844331, guid: a8a737ba44c48444f932554f9f13307a,
        type: 3}
      propertyPath: m_LocalPosition.z
      value: 0
      objectReference: {fileID: 0}
    - target: {fileID: 6964907455396844331, guid: a8a737ba44c48444f932554f9f13307a,
        type: 3}
      propertyPath: m_LocalRotation.x
      value: 0
      objectReference: {fileID: 0}
    - target: {fileID: 6964907455396844331, guid: a8a737ba44c48444f932554f9f13307a,
        type: 3}
      propertyPath: m_LocalRotation.y
      value: 0
      objectReference: {fileID: 0}
    - target: {fileID: 6964907455396844331, guid: a8a737ba44c48444f932554f9f13307a,
        type: 3}
      propertyPath: m_LocalRotation.z
      value: 0
      objectReference: {fileID: 0}
    - target: {fileID: 6964907455396844331, guid: a8a737ba44c48444f932554f9f13307a,
        type: 3}
      propertyPath: m_LocalRotation.w
      value: 1
      objectReference: {fileID: 0}
    - target: {fileID: 6964907455396844331, guid: a8a737ba44c48444f932554f9f13307a,
        type: 3}
      propertyPath: m_RootOrder
      value: 0
      objectReference: {fileID: 0}
    - target: {fileID: 6964907455396844331, guid: a8a737ba44c48444f932554f9f13307a,
        type: 3}
      propertyPath: m_LocalEulerAnglesHint.x
      value: 0
      objectReference: {fileID: 0}
    - target: {fileID: 6964907455396844331, guid: a8a737ba44c48444f932554f9f13307a,
        type: 3}
      propertyPath: m_LocalEulerAnglesHint.y
      value: 0
      objectReference: {fileID: 0}
    - target: {fileID: 6964907455396844331, guid: a8a737ba44c48444f932554f9f13307a,
        type: 3}
      propertyPath: m_LocalEulerAnglesHint.z
      value: 0
      objectReference: {fileID: 0}
    - target: {fileID: 6964907455396844331, guid: a8a737ba44c48444f932554f9f13307a,
        type: 3}
      propertyPath: m_AnchoredPosition.x
      value: -400
      objectReference: {fileID: 0}
    - target: {fileID: 6964907455396844331, guid: a8a737ba44c48444f932554f9f13307a,
        type: 3}
      propertyPath: m_AnchoredPosition.y
      value: -190.73528
      objectReference: {fileID: 0}
    - target: {fileID: 6964907455396844331, guid: a8a737ba44c48444f932554f9f13307a,
        type: 3}
      propertyPath: m_SizeDelta.x
      value: 100
      objectReference: {fileID: 0}
    - target: {fileID: 6964907455396844331, guid: a8a737ba44c48444f932554f9f13307a,
        type: 3}
      propertyPath: m_SizeDelta.y
      value: 150
      objectReference: {fileID: 0}
    - target: {fileID: 6964907455396844331, guid: a8a737ba44c48444f932554f9f13307a,
        type: 3}
      propertyPath: m_AnchorMin.x
      value: 0.5
      objectReference: {fileID: 0}
    - target: {fileID: 6964907455396844331, guid: a8a737ba44c48444f932554f9f13307a,
        type: 3}
      propertyPath: m_AnchorMin.y
      value: 0.5
      objectReference: {fileID: 0}
    - target: {fileID: 6964907455396844331, guid: a8a737ba44c48444f932554f9f13307a,
        type: 3}
      propertyPath: m_AnchorMax.x
      value: 0.5
      objectReference: {fileID: 0}
    - target: {fileID: 6964907455396844331, guid: a8a737ba44c48444f932554f9f13307a,
        type: 3}
      propertyPath: m_AnchorMax.y
      value: 0.5
      objectReference: {fileID: 0}
    - target: {fileID: 6964907455396844331, guid: a8a737ba44c48444f932554f9f13307a,
        type: 3}
      propertyPath: m_Pivot.x
      value: 0.5
      objectReference: {fileID: 0}
    - target: {fileID: 6964907455396844331, guid: a8a737ba44c48444f932554f9f13307a,
        type: 3}
      propertyPath: m_Pivot.y
      value: 0.5
      objectReference: {fileID: 0}
    m_RemovedComponents: []
  m_SourcePrefab: {fileID: 100100000, guid: a8a737ba44c48444f932554f9f13307a, type: 3}
